<svg width="15" height="16" viewBox="0 0 15 16" fill="none" xmlns="http://www.w3.org/2000/svg">
<path d="M0 8.02469H15" stroke="white" stroke-width="3"/>
<path d="M7.5 0.70752V15.3417" stroke="white" stroke-width="3"/>
</svg>
