<svg width="28" height="28" viewBox="0 0 28 28" fill="none" xmlns="http://www.w3.org/2000/svg">
<circle cx="14" cy="14" r="14" fill="#2C4159"/>
<path d="M18.1622 14.3784H9.83789" stroke="white" stroke-width="2" stroke-linecap="square"/>
</svg>
