<svg width="27" height="26" viewBox="0 0 27 26" fill="none" xmlns="http://www.w3.org/2000/svg">
<circle r="13" transform="matrix(0 -1 -1 0 13.5 13)" fill="#8B96A2" fill-opacity="0.170181"/>
<path d="M15.5 7.34315L9.84315 13L15.5 18.6569" stroke="#2C4159" stroke-width="3"/>
</svg>
