<svg width="12" height="12" viewBox="0 0 12 12" fill="none" xmlns="http://www.w3.org/2000/svg">
<path d="M3.375 7.69692C3.11872 7.9532 3.11872 8.36872 3.375 8.625C3.63128 8.88128 4.0468 8.88128 4.30308 8.625L8.625 4.30308C8.88128 4.0468 8.88128 3.63128 8.625 3.375C8.36872 3.11872 7.9532 3.11872 7.69692 3.375L3.375 7.69692Z" fill="#FCD0CF"/>
<path fill-rule="evenodd" clip-rule="evenodd" d="M2.28769 9.71231C4.33794 11.7626 7.66206 11.7626 9.71231 9.71231C11.7626 7.66206 11.7626 4.33794 9.71231 2.28769C7.66206 0.237437 4.33794 0.237437 2.28769 2.28769C0.237437 4.33794 0.237437 7.66206 2.28769 9.71231ZM8.91667 8.91667C7.37898 10.4544 4.62102 10.4544 3.08333 8.91667C1.54564 7.37898 1.54564 4.62102 3.08333 3.08333C4.62102 1.54564 7.37898 1.54564 8.91667 3.08333C10.4544 4.62102 10.4544 7.37898 8.91667 8.91667Z" fill="#FCD0CF"/>
</svg>
