<svg width="26" height="26" viewBox="0 0 26 26" fill="none" xmlns="http://www.w3.org/2000/svg">
<circle cx="13" cy="13" r="13" fill="#8B96A2" fill-opacity="0.170181"/>
<path d="M18.6569 10.9996L13 16.6565L7.34315 10.9996" stroke="#2C4159" stroke-width="3"/>
</svg>
