<svg width="12" height="12" viewBox="0 0 12 12" fill="none" xmlns="http://www.w3.org/2000/svg">
<path d="M5.1405 6.71281L5.27124 8.20711L3.49029 8.36292C4.16462 9.01283 5.08178 9.41252 6.09229 9.41252C8.16335 9.41252 9.84229 7.73359 9.84229 5.66252C9.84229 3.59145 8.16335 1.91252 6.09229 1.91252C4.72671 1.91252 3.53161 2.64244 2.87587 3.73342L1.37384 3.35791C2.22736 1.61369 4.01955 0.41252 6.09229 0.41252C8.99178 0.41252 11.3423 2.76303 11.3423 5.66252C11.3423 8.56201 8.99178 10.9125 6.09229 10.9125C4.63245 10.9125 3.31178 10.3167 2.3602 9.35495L2.54412 11.4572L1.04983 11.5879L0.657626 7.10501L5.1405 6.71281Z" fill="white"/>
</svg>
