<svg width="12" height="14" viewBox="0 0 12 14" fill="none" xmlns="http://www.w3.org/2000/svg">
<circle cx="6" cy="6" r="5" stroke="#32475E" stroke-width="2"/>
<path d="M8.85735 10.2866L10.5002 12.5008" stroke="#32475E" stroke-width="2" stroke-linecap="square"/>
</svg>
