<svg width="17" height="17" viewBox="0 0 17 17" fill="none" xmlns="http://www.w3.org/2000/svg">
<path fill-rule="evenodd" clip-rule="evenodd" d="M1 1H13V13H1V1ZM2.5 11.5H11.5V2.5H2.5V11.5Z" fill="#2C4159"/>
<path d="M13 1H13.2V0.8H13V1ZM1 1V0.8H0.8V1H1ZM13 13V13.2H13.2V13H13ZM1 13H0.8V13.2H1V13ZM11.5 11.5V11.7H11.7V11.5H11.5ZM2.5 11.5H2.3V11.7H2.5V11.5ZM11.5 2.5H11.7V2.3H11.5V2.5ZM2.5 2.5V2.3H2.3V2.5H2.5ZM13 0.8H1V1.2H13V0.8ZM13.2 13V1H12.8V13H13.2ZM1 13.2H13V12.8H1V13.2ZM0.8 1V13H1.2V1H0.8ZM11.5 11.3H2.5V11.7H11.5V11.3ZM11.3 2.5V11.5H11.7V2.5H11.3ZM2.5 2.7H11.5V2.3H2.5V2.7ZM2.7 11.5V2.5H2.3V11.5H2.7Z" fill="#2C4159"/>
<path d="M14.5 4.75V14.5H4.75V16H16V4.75H14.5Z" fill="#2C4159" stroke="#2C4159" stroke-width="0.4"/>
</svg>
