<svg width="26" height="27" viewBox="0 0 26 27" fill="none" xmlns="http://www.w3.org/2000/svg">
<rect x="0.6" y="0.6" width="24.8" height="25.3652" rx="1.4" fill="#EFF0F3" stroke="#A1AAB5" stroke-width="1.2"/>
<path fill-rule="evenodd" clip-rule="evenodd" d="M13.1429 8.17389C17.0714 8.17389 19.9286 12.6987 20 12.9177L20.2857 13.2826L20 13.6475C19.9286 13.8664 17.0714 18.3913 13.1429 18.3913C9.28276 18.3913 6.45707 14.0228 6.22422 13.6628C6.22009 13.6564 6.21678 13.6513 6.21429 13.6475L6 13.2826L6.28571 12.9177C6.35714 12.6987 9.21429 8.17389 13.1429 8.17389ZM7.71429 13.2826C8.5 14.3043 10.6429 16.9317 13.1429 16.9317C15.6429 16.9317 17.8571 14.3043 18.5714 13.2826C17.7857 12.2609 15.6429 9.63352 13.1429 9.63352C10.5714 9.63352 8.42857 12.2609 7.71429 13.2826Z" fill="#2C4159"/>
<path fill-rule="evenodd" clip-rule="evenodd" d="M10.2856 13.2826C10.2856 11.6771 11.5714 10.3634 13.1428 10.3634C14.7142 10.3634 15.9999 11.6771 15.9999 13.2826C15.9999 14.8882 14.7142 16.2019 13.1428 16.2019C11.5714 16.2019 10.2856 14.8882 10.2856 13.2826ZM11.7142 13.2826C11.7142 14.0854 12.3571 14.7423 13.1428 14.7423C13.9285 14.7423 14.5714 14.0854 14.5714 13.2826C14.5714 12.4799 13.9285 11.823 13.1428 11.823C12.3571 11.823 11.7142 12.4799 11.7142 13.2826Z" fill="#2C4159"/>
</svg>
